[
    {
     "cmd": "pause",
     "duration": 5
    },
    {
        "cmd": "save_iq",
        "sync": true,
        "timeout": 60,

        "nsamps": 25600,

        "rxrate": 10e6,
        "rxfreq": 460e6,
        "rxgain": {"start": 50.0, "end": 50.0, "step": 20.0},
        "rxrepeat": 5000,
        "rxwait": {"min": 1, "max": 5, "res": "s"}
    }
]
