[
    {
        "cmd": "save_iq",
        "sync": true,
        "timeout": 60,

        "nsamps": 18000,

        "rxrate": 18e6,
        "rxfreq": 707e6,
        "rxgain": {"fixed": 30.0},
        "rxrepeat": 500,
        "rxwait": {"min": 2, "max": 10, "res": "s"}
    }
]
